<?xml version="1.0" encoding="UTF-8" standalone="no"?>
<svg
   width="199.97594mm"
   height="199.97798mm"
   viewBox="0 0 199.97594 199.97798"
   version="1.1"
   id="svg6380"
   inkscape:version="1.1.1 (3bf5ae0d25, 2021-09-20)"
   sodipodi:docname="dashboard_icon.svg"
   xmlns:inkscape="http://www.inkscape.org/namespaces/inkscape"
   xmlns:sodipodi="http://sodipodi.sourceforge.net/DTD/sodipodi-0.dtd"
   xmlns="http://www.w3.org/2000/svg"
   xmlns:svg="http://www.w3.org/2000/svg">
  <sodipodi:namedview
     id="namedview6382"
     pagecolor="#ffffff"
     bordercolor="#666666"
     borderopacity="1.0"
     inkscape:pageshadow="2"
     inkscape:pageopacity="0.0"
     inkscape:pagecheckerboard="0"
     inkscape:document-units="mm"
     showgrid="false"
     inkscape:zoom="0.64379276"
     inkscape:cx="379.7806"
     inkscape:cy="362.69436"
     inkscape:window-width="1920"
     inkscape:window-height="1017"
     inkscape:window-x="-8"
     inkscape:window-y="-8"
     inkscape:window-maximized="1"
     inkscape:current-layer="layer1"
     fit-margin-top="0"
     fit-margin-left="0"
     fit-margin-right="0"
     fit-margin-bottom="0" />
  <defs
     id="defs6377" />
  <g
     inkscape:label="Layer 1"
     inkscape:groupmode="layer"
     id="layer1"
     transform="translate(-4.3489144,-52.483086)">
    <path
       id="path4572"
       style="color:#000000;fill:#0cde74;stroke-width:1;-inkscape-stroke:none"
       d="m 126.47379,75.52354 5.72678,-19.091341 c -8.55437,-2.488592 -17.5772,-3.858742 -26.89964,-3.947562 l -0.008,19.968289 c 7.3445,0.08542 14.44672,1.147657 21.18062,3.070614 z" />
    <path
       id="path4664"
       style="color:#000000;fill:#0cde74;stroke-width:1;-inkscape-stroke:none"
       d="m 148.16342,85.439213 11.06031,-16.498218 c -7.743,-5.107244 -16.22953,-9.173038 -25.26358,-11.983765 l -5.72626,19.089275 c 7.12704,2.214364 13.81883,5.398386 19.92953,9.392708 z" />
    <path
       id="path4660"
       style="color:#000000;fill:#0cde74;stroke-width:1;-inkscape-stroke:none"
       d="M 166.6703,102.18548 182.2647,89.906123 C 176.11773,82.266994 168.87517,75.546093 160.77609,69.984861 L 149.71785,86.48101 c 6.38613,4.391218 12.09705,9.686443 16.95245,15.70447 z" />
    <path
       id="path4656"
       style="color:#000000;fill:#0cde74;stroke-width:1;-inkscape-stroke:none"
       d="m 179.54962,124.97582 18.78593,-6.61252 c -3.56446,-9.78322 -8.61834,-18.856684 -14.88178,-26.951325 L 167.85731,103.6934 c 4.91176,6.39577 8.88061,13.55646 11.69231,21.28242 z" />
    <path
       id="path4652"
       style="color:#000000;fill:#0cde74;stroke-width:1;-inkscape-stroke:none"
       d="m 184.35605,151.53389 19.9688,0.009 c -0.10049,-10.94668 -1.96676,-21.48149 -5.33559,-31.32936 l -18.79213,6.61356 c 2.61047,7.76402 4.06034,16.06777 4.15892,24.7065 z" />
    <path
       id="path4648"
       style="color:#000000;fill:#0cde74;stroke-width:1;-inkscape-stroke:none"
       d="m 180.1656,178.21236 18.78387,6.63009 c 3.38093,-9.84461 5.26052,-20.37674 5.37383,-31.32264 l -19.96829,-0.009 c -0.10912,8.63781 -1.56902,16.94018 -4.18941,24.70133 z" />
    <path
       id="path4644"
       style="color:#000000;fill:#0cde74;stroke-width:1;-inkscape-stroke:none"
       d="m 167.79943,201.3262 15.58613,12.29485 c 6.27166,-8.08667 11.33598,-17.15267 14.91124,-26.92962 l -18.78129,-6.62905 c -2.82069,7.72044 -6.79749,14.87488 -11.71608,21.26382 z" />
    <path
       id="path4640"
       style="color:#000000;fill:#0cde74;stroke-width:1;-inkscape-stroke:none"
       d="m 149.64189,218.51584 11.04532,16.50546 c 8.10385,-5.55168 15.35188,-12.26429 21.50618,-19.89491 l -15.58407,-12.29228 c -4.86152,6.0107 -10.57732,11.29864 -16.96743,15.68173 z" />
    <path
       id="path4636"
       style="color:#000000;fill:#0cde74;stroke-width:1;-inkscape-stroke:none"
       d="m 128.14862,228.92503 5.71077,19.09185 c 9.03593,-2.80081 17.52582,-6.85547 25.27287,-11.95327 l -11.04635,-16.50752 c -6.11418,3.98646 -12.80852,7.16283 -19.93729,9.36894 z" />
    <path
       id="path4632"
       style="color:#000000;fill:#0cde74;stroke-width:1;-inkscape-stroke:none"
       d="m 105.20429,232.49277 -0.008,19.96829 c 9.323,-0.0792 18.34727,-1.43973 26.90378,-3.91914 l -5.71179,-19.09599 c -6.73564,1.9153 -13.83928,2.96935 -21.18424,3.04684 z" />
    <path
       id="path4624"
       style="color:#000000;fill:#0cde74;stroke-width:1;-inkscape-stroke:none"
       d="m 60.511898,219.50596 -11.059792,16.49822 c 7.742515,5.10669 16.228174,9.17223 25.261509,11.98273 l 5.725747,-19.08876 c -7.126285,-2.21417 -13.81729,-5.3984 -19.927464,-9.39219 z" />
    <path
       id="path4620"
       style="color:#000000;fill:#0cde74;stroke-width:1;-inkscape-stroke:none"
       d="M 42.003466,202.75867 26.40907,215.03802 c 6.147009,7.63918 13.389467,14.36052 21.488609,19.92178 l 11.058242,-16.49667 c -6.38606,-4.39119 -12.097097,-9.68649 -16.952455,-15.70446 z" />
    <path
       id="path4616"
       style="color:#000000;fill:#0cde74;stroke-width:1;-inkscape-stroke:none"
       d="m 29.12415,179.96833 -18.785937,6.61251 c 3.564467,9.78322 8.618346,18.85669 14.881782,26.95133 l 15.596463,-12.28142 c -4.911762,-6.39578 -8.88061,-13.55646 -11.692308,-21.28242 z" />
    <path
       id="path4612"
       style="color:#000000;fill:#0cde74;stroke-width:1;-inkscape-stroke:none"
       d="m 24.317724,153.41026 -19.9688096,-0.009 c 0.1004607,10.9468 1.9667324,21.4814 5.3355918,31.32936 l 18.7916208,-6.61355 c -2.61037,-7.76393 -4.059858,-16.06789 -4.158403,-24.70649 z" />
    <path
       id="path4608"
       style="color:#000000;fill:#0cde74;stroke-width:1;-inkscape-stroke:none"
       d="M 28.508166,126.7323 9.7237804,120.1017 c -3.3808611,9.84447 -5.2599754,20.3769 -5.3733155,31.32263 l 19.9682931,0.009 c 0.109149,-8.63772 1.569046,-16.93975 4.189408,-24.70082 z" />
    <path
       id="path4604"
       style="color:#000000;fill:#0cde74;stroke-width:1;-inkscape-stroke:none"
       d="M 40.874854,103.61743 25.288724,91.322575 C 19.016866,99.40939 13.952311,108.47553 10.37697,118.25271 l 18.781285,6.62906 c 2.820781,-7.72068 6.797805,-14.87526 11.716599,-21.26434 z" />
    <path
       id="path4600"
       style="color:#000000;fill:#0cde74;stroke-width:1;-inkscape-stroke:none"
       d="M 59.031885,86.428818 47.986563,69.922848 C 39.882685,75.474531 32.634692,82.187111 26.480383,89.817757 L 42.063929,102.11055 C 46.925528,96.09964 52.64161,90.812043 59.031885,86.428818 Z" />
    <path
       id="path4596"
       style="color:#000000;fill:#0cde74;stroke-width:1;-inkscape-stroke:none"
       d="M 80.52618,76.019634 74.815416,56.926742 C 65.779038,59.727582 57.2889,63.783006 49.541506,68.881051 L 60.58786,85.388053 c 6.11442,-3.986609 12.809244,-7.162308 19.93832,-9.368419 z" />
    <path
       id="path4592"
       style="color:#000000;fill:#0cde74;stroke-width:1;-inkscape-stroke:none"
       d="m 103.47725,52.483086 c -9.322751,0.07918 -18.346479,1.439895 -26.902768,3.919141 l 5.711796,19.095474 c 6.735395,-1.915131 13.838547,-2.96835 21.183222,-3.04581 z" />
    <path
       id="path6625"
       style="color:#000000;fill:#0cde74;stroke-width:1;-inkscape-stroke:none"
       d="m 116.90072,104.95937 5.92626,-19.756846 c -5.82607,-1.673718 -11.95958,-2.603295 -18.28984,-2.688712 l -0.008,20.657558 c 4.28381,0.0793 8.42902,0.69641 12.37186,1.788 z" />
    <path
       id="path6701"
       style="color:#000000;fill:#0cde74;stroke-width:1;-inkscape-stroke:none"
       d="m 130.32213,110.96004 11.44168,-17.067654 c -5.28008,-3.455899 -11.04897,-6.219764 -17.17932,-8.158115 l -5.92367,19.748579 c 4.15689,1.32005 8.07085,3.17076 11.66131,5.47719 z" />
    <path
       id="path6697"
       style="color:#000000;fill:#0cde74;stroke-width:1;-inkscape-stroke:none"
       d="m 141.80877,121.19973 16.13131,-12.70259 c -4.20451,-5.18009 -9.13106,-9.751111 -14.62443,-13.55883 l -11.43961,17.06508 c 3.72198,2.59634 7.0651,5.69253 9.93273,9.19634 z" />
    <path
       id="path6693"
       style="color:#000000;fill:#0cde74;stroke-width:1;-inkscape-stroke:none"
       d="m 149.83825,135.19784 19.43705,-6.84145 c -2.45759,-6.64663 -5.90108,-12.82182 -10.14666,-18.35288 l -16.13442,12.70517 c 2.84928,3.77238 5.16633,7.97135 6.84403,12.48916 z" />
    <path
       id="path6689"
       style="color:#000000;fill:#0cde74;stroke-width:1;-inkscape-stroke:none"
       d="m 152.9161,151.54878 20.6561,0.01 c -0.0995,-7.45012 -1.36991,-14.62747 -3.64267,-21.3527 l -19.44584,6.84351 c 1.49182,4.56936 2.33782,9.4373 2.43241,14.49938 z" />
    <path
       id="path6685"
       style="color:#000000;fill:#0cde74;stroke-width:1;-inkscape-stroke:none"
       d="m 150.46147,168.02219 19.43964,6.86211 c 2.28187,-6.72286 3.56094,-13.89899 3.67006,-21.34856 l -20.65611,-0.009 c -0.10174,5.06138 -0.95502,9.92824 -2.45359,14.49576 z" />
    <path
       id="path6681"
       style="color:#000000;fill:#0cde74;stroke-width:1;-inkscape-stroke:none"
       d="m 142.95236,182.34948 16.12357,12.7186 c 4.25156,-5.52487 7.70119,-11.69526 10.16682,-18.33686 l -19.42982,-6.85798 c -1.6838,4.51386 -4.0067,8.70854 -6.86057,12.47624 z" />
    <path
       id="path6677"
       style="color:#000000;fill:#0cde74;stroke-width:1;-inkscape-stroke:none"
       d="m 131.82074,193.03927 11.42566,17.07389 c 5.49709,-3.80058 10.42832,-8.36495 14.63838,-13.53871 l -16.12046,-12.7155 c -2.87176,3.49876 -6.21889,6.58949 -9.94358,9.18032 z" />
    <path
       id="path6673"
       style="color:#000000;fill:#0cde74;stroke-width:1;-inkscape-stroke:none"
       d="m 118.59881,199.54171 5.90817,19.7528 c 6.13191,-1.93091 11.90284,-4.68861 17.18603,-8.13749 L 130.2658,194.08106 c -3.59284,2.30117 -7.50884,4.14618 -11.66699,5.46065 z" />
    <path
       id="path6669"
       style="color:#000000;fill:#0cde74;stroke-width:1;-inkscape-stroke:none"
       d="m 104.46428,201.8346 -0.008,20.65558 c 6.33079,-0.0781 12.46573,-0.99967 18.29346,-2.6665 l -5.91075,-19.76107 c -3.9441,1.08648 -8.09018,1.69806 -12.37444,1.77199 z" />
    <path
       id="path6661"
       style="color:#000000;fill:#0cde74;stroke-width:1;-inkscape-stroke:none"
       d="m 76.847492,194.04437 -11.441143,17.06718 c 5.279755,3.45556 11.048376,6.21943 17.17822,8.15764 l 5.923637,-19.74763 c -4.156516,-1.32014 -8.070615,-3.17072 -11.660714,-5.47719 z" />
    <path
       id="path6657"
       style="color:#000000;fill:#0cde74;stroke-width:1;-inkscape-stroke:none"
       d="m 65.360875,183.80314 -16.131833,12.7031 c 4.204356,5.17986 9.130808,9.75072 14.623915,13.55834 l 11.439074,-17.06459 c -3.721306,-2.59641 -7.064051,-5.69317 -9.931156,-9.19685 z" />
    <path
       id="path6653"
       style="color:#000000;fill:#0cde74;stroke-width:1;-inkscape-stroke:none"
       d="m 57.332425,169.80451 -19.438607,6.84196 c 2.457514,6.6464 5.900769,12.82198 10.146149,18.35288 l 16.135451,-12.70516 c -2.848933,-3.77253 -5.16554,-7.97184 -6.842993,-12.48968 z" />
    <path
       id="path6649"
       style="color:#000000;fill:#0cde74;stroke-width:1;-inkscape-stroke:none"
       d="m 54.254577,153.45409 -20.657655,-0.01 c 0.09947,7.45021 1.369888,14.6274 3.642672,21.3527 l 19.44739,-6.84454 c -1.491406,-4.56906 -2.337855,-9.43679 -2.432407,-14.49834 z" />
    <path
       id="path6645"
       style="color:#000000;fill:#0cde74;stroke-width:1;-inkscape-stroke:none"
       d="m 56.709723,136.98171 -19.441708,-6.86263 c -2.281751,6.72266 -3.560926,13.89872 -3.670059,21.34805 l 20.657653,0.009 c 0.10174,-5.06116 0.955757,-9.92749 2.454114,-14.49472 z" />
    <path
       id="path6641"
       style="color:#000000;fill:#0cde74;stroke-width:1;-inkscape-stroke:none"
       d="M 64.218309,122.6539 48.093712,109.93426 c -4.251881,5.52511 -7.701581,11.69542 -10.167339,18.33738 l 19.431888,6.8585 c 1.683769,-4.51406 4.006112,-8.70849 6.860048,-12.47624 z" />
    <path
       id="path6637"
       style="color:#000000;fill:#0cde74;stroke-width:1;-inkscape-stroke:none"
       d="M 75.348881,111.96515 63.922719,94.89025 c -5.496999,3.800519 -10.428369,8.36449 -14.638382,13.53816 l 16.121496,12.71654 c 2.871589,-3.49864 6.218531,-6.5891 9.943048,-9.1798 z" />
    <path
       id="path6633"
       style="color:#000000;fill:#0cde74;stroke-width:1;-inkscape-stroke:none"
       d="M 88.571256,105.4627 82.662609,85.708434 c -6.132234,1.930958 -11.903551,4.688353 -17.187013,8.137442 l 11.427706,17.077994 c 3.593009,-2.30131 7.509468,-4.14671 11.667954,-5.46117 z" />
    <path
       id="path6629"
       style="color:#000000;fill:#0cde74;stroke-width:1;-inkscape-stroke:none"
       d="m 102.71296,82.512782 c -6.330459,0.0781 -12.464893,0.999324 -18.29233,2.665975 l 5.911227,19.763563 c 3.943646,-1.08617 8.089022,-1.69809 12.372833,-1.77198 z" />
    <path
       id="path8438"
       style="color:#000000;fill:#0cde74;stroke-width:1;-inkscape-stroke:none"
       d="m 108.89561,131.69892 5.57485,-18.58543 c -3.18739,-0.88751 -6.52665,-1.39766 -9.96683,-1.47639 l -0.007,19.43499 c 1.51453,0.0627 2.98578,0.2753 4.39921,0.62683 z" />
    <path
       id="path8514"
       style="color:#000000;fill:#0cde74;stroke-width:1;-inkscape-stroke:none"
       d="m 114.82858,134.16285 10.76627,-16.06 c -2.89722,-1.86123 -6.04116,-3.36589 -9.36739,-4.45657 l -5.57175,18.57457 c 1.47102,0.50224 2.86952,1.15247 4.17287,1.942 z" />
    <path
       id="path8510"
       style="color:#000000;fill:#0cde74;stroke-width:1;-inkscape-stroke:none"
       d="m 119.95591,138.51401 15.17996,-11.95328 c -2.32366,-2.806 -5.01252,-5.30018 -7.99021,-7.40936 l -10.76111,16.05328 c 1.31503,0.96371 2.51129,2.07533 3.57136,3.30936 z" />
    <path
       id="path8506"
       style="color:#000000;fill:#0cde74;stroke-width:1;-inkscape-stroke:none"
       d="m 123.60375,144.54775 18.28209,-6.43527 c -1.38294,-3.61779 -3.2639,-6.99548 -5.5609,-10.0459 l -15.18564,11.95741 c 0.99253,1.39095 1.82251,2.90695 2.46445,4.52376 z" />
    <path
       id="path8502"
       style="color:#000000;fill:#0cde74;stroke-width:1;-inkscape-stroke:none"
       d="m 125.11477,151.65946 19.43551,0.009 c -0.0947,-4.07246 -0.794,-8.00332 -2.00867,-11.70782 l -18.29707,6.4394 c 0.4932,1.67338 0.79213,3.4342 0.87023,5.25912 z" />
    <path
       id="path8498"
       style="color:#000000;fill:#0cde74;stroke-width:1;-inkscape-stroke:none"
       d="m 124.23162,158.89468 18.28984,6.45593 c 1.22065,-3.70278 1.92713,-7.63234 2.0283,-11.70419 l -19.43602,-0.008 c -0.0819,1.82437 -0.3853,3.58425 -0.88212,5.25653 z" />
    <path
       id="path8494"
       style="color:#000000;fill:#0cde74;stroke-width:1;-inkscape-stroke:none"
       d="m 121.11295,165.26328 15.17375,11.96929 c 2.30117,-3.04642 4.18758,-6.41993 5.57589,-10.03452 l -18.27641,-6.45077 c -0.6452,1.61439 -1.47817,3.12779 -2.47323,4.516 z" />
    <path
       id="path8490"
       style="color:#000000;fill:#0cde74;stroke-width:1;-inkscape-stroke:none"
       d="m 116.34735,170.07229 10.74818,16.06155 c 2.98011,-2.10431 5.67172,-4.59381 7.99899,-7.39541 l -15.17013,-11.96568 c -1.0622,1.23086 -2.26063,2.33913 -3.57704,3.29954 z" />
    <path
       id="path8486"
       style="color:#000000;fill:#0cde74;stroke-width:1;-inkscape-stroke:none"
       d="m 110.61385,173.04265 5.55728,18.57923 c 3.32746,-1.08572 6.47266,-2.58602 9.37204,-4.44263 l -10.75283,-16.06878 c -1.30468,0.7866 -2.70462,1.43301 -4.17649,1.93218 z" />
    <path
       id="path8482"
       style="color:#000000;fill:#0cde74;stroke-width:1;-inkscape-stroke:none"
       d="m 104.4535,174.17902 -0.008,19.43447 c 3.44014,-0.0739 6.77974,-0.57869 9.96787,-1.46141 l -5.56039,-18.59112 c -1.41383,0.34863 -2.88519,0.55828 -4.39973,0.61806 z" />
    <path
       id="path8474"
       style="color:#000000;fill:#0cde74;stroke-width:1;-inkscape-stroke:none"
       d="m 92.297695,171.08773 -10.76569,16.06 c 2.896925,1.86095 6.040467,3.3655 9.366309,4.45606 l 5.571717,-18.57458 c -1.470781,-0.50216 -2.869172,-1.15211 -4.172336,-1.94148 z" />
    <path
       id="path8470"
       style="color:#000000;fill:#0cde74;stroke-width:1;-inkscape-stroke:none"
       d="m 87.169875,166.73606 -15.179866,11.95379 c 2.323498,2.80582 5.012203,5.29975 7.989645,7.40885 l 10.76104,-16.05328 c -1.314794,-0.96362 -2.510905,-2.0755 -3.570819,-3.30936 z" />
    <path
       id="path8466"
       style="color:#000000;fill:#0cde74;stroke-width:1;-inkscape-stroke:none"
       d="m 83.522056,160.70232 -18.281988,6.43527 c 1.382934,3.61779 3.263882,6.99548 5.56088,10.04589 l 15.185543,-11.95741 c -0.992524,-1.39094 -1.822491,-2.90694 -2.464435,-4.52375 z" />
    <path
       id="path8462"
       style="color:#000000;fill:#0cde74;stroke-width:1;-inkscape-stroke:none"
       d="m 82.011042,153.59061 -19.435389,-0.009 c 0.0947,4.07247 0.793977,8.0033 2.008648,11.70781 l 18.296968,-6.4394 c -0.493197,-1.6734 -0.792127,-3.43417 -0.870227,-5.25911 z" />
    <path
       id="path8458"
       style="color:#000000;fill:#0cde74;stroke-width:1;-inkscape-stroke:none"
       d="m 82.894189,146.35539 -18.289738,-6.45594 c -1.220641,3.70278 -1.927108,7.63236 -2.028288,11.7042 l 19.435919,0.008 c 0.0819,-1.82434 0.3853,-3.58425 0.882107,-5.25652 z" />
    <path
       id="path8454"
       style="color:#000000;fill:#0cde74;stroke-width:1;-inkscape-stroke:none"
       d="M 86.012851,139.98679 70.839188,128.01697 c -2.301278,3.04652 -4.187506,6.42033 -5.57586,10.03505 l 18.276298,6.45077 c 0.645194,-1.61439 1.478161,-3.12779 2.473225,-4.516 z" />
    <path
       id="path8450"
       style="color:#000000;fill:#0cde74;stroke-width:1;-inkscape-stroke:none"
       d="m 90.778424,135.17829 -10.74812,-16.06206 c -2.980072,2.10427 -5.671687,4.59385 -7.998955,7.39541 l 15.170046,11.96619 c 1.062244,-1.23095 2.260535,-2.33906 3.577029,-3.29954 z" />
    <path
       id="path8446"
       style="color:#000000;fill:#0cde74;stroke-width:1;-inkscape-stroke:none"
       d="m 96.511371,132.20742 -5.556737,-18.57923 c -3.327652,1.08579 -6.472984,2.58636 -9.372499,4.44314 l 10.75225,16.06827 c 1.304754,-0.78673 2.705015,-1.43293 4.176986,-1.93218 z" />
    <path
       id="path8442"
       style="color:#000000;fill:#0cde74;stroke-width:1;-inkscape-stroke:none"
       d="m 102.67997,111.63658 c -3.439984,0.0739 -6.779336,0.57876 -9.967318,1.46141 l 5.56036,18.59111 c 1.413701,-0.34856 2.884808,-0.55828 4.399198,-0.61805 z" />
    <circle
       style="fill:#01aff0;fill-opacity:0.539024;stroke:#0010f2;stroke-width:1;stroke-miterlimit:4;stroke-dasharray:none"
       id="path10258"
       cx="103.97691"
       cy="152.47206"
       r="10.685374" />
  </g>
</svg>
