<?xml version="1.0" encoding="UTF-8" standalone="no"?>
<!-- Created with Inkscape (http://www.inkscape.org/) -->

<svg
   width="405mm"
   height="130mm"
   viewBox="0 0 404.99999 130"
   version="1.1"
   id="svg31825"
   inkscape:version="1.1.1 (3bf5ae0d25, 2021-09-20)"
   sodipodi:docname="npk3.svg"
   xmlns:inkscape="http://www.inkscape.org/namespaces/inkscape"
   xmlns:sodipodi="http://sodipodi.sourceforge.net/DTD/sodipodi-0.dtd"
   xmlns="http://www.w3.org/2000/svg"
   xmlns:svg="http://www.w3.org/2000/svg">
  <sodipodi:namedview
     id="namedview31827"
     pagecolor="#ffffff"
     bordercolor="#666666"
     borderopacity="1.0"
     inkscape:pageshadow="2"
     inkscape:pageopacity="0.0"
     inkscape:pagecheckerboard="0"
     inkscape:document-units="mm"
     showgrid="false"
     inkscape:zoom="0.69044441"
     inkscape:cx="740.8272"
     inkscape:cy="346.87803"
     inkscape:window-width="1920"
     inkscape:window-height="1017"
     inkscape:window-x="-8"
     inkscape:window-y="-8"
     inkscape:window-maximized="1"
     inkscape:current-layer="layer1"
     fit-margin-top="0"
     fit-margin-left="0"
     fit-margin-right="0"
     fit-margin-bottom="0" />
  <defs
     id="defs31822" />
  <g
     inkscape:label="Layer 1"
     inkscape:groupmode="layer"
     id="layer1"
     transform="translate(-41.189334,-75.002121)">
    <g
       id="path31934-1"
       inkscape:transform-center-x="-0.068759293"
       inkscape:transform-center-y="0.23022902"
       transform="matrix(-0.01180098,0.11290193,-0.10832214,-0.01018587,153.37089,101.17356)"
       style="stroke:#000000;stroke-width:5.43139;stroke-miterlimit:4;stroke-dasharray:none;stroke-opacity:1">
      <path
         style="color:#000000;fill:#00ff00;stroke:#000000;stroke-width:5.43139;stroke-miterlimit:4;stroke-dasharray:none;stroke-opacity:1"
         d="M 351.94723,524.29999 153.53178,543.53692 37.66438,381.32256 120.21244,199.87127 318.62789,180.63434 434.49529,342.8487 Z"
         id="path59050-5" />
      <path
         style="color:#000000;fill:#000000;stroke:#000000;stroke-width:5.43139;stroke-miterlimit:4;stroke-dasharray:none;stroke-opacity:1"
         d="m 318.91602,180.00195 -199.10743,19.30469 -82.835934,182.08203 116.271484,162.7793 199.10742,-19.30274 0.14258,-0.3164 82.69141,-181.76758 z m -0.57618,1.26367 115.46485,161.6504 L 351.54492,523.73437 153.81836,542.9043 38.355469,381.25586 120.61523,200.43555 Z"
         id="path59052-9" />
    </g>
    <g
       id="path31934-8-6"
       inkscape:transform-center-x="-0.06875013"
       inkscape:transform-center-y="0.2302093"
       transform="matrix(-0.01180098,0.11290193,-0.10832214,-0.01018587,190.99068,100.91226)"
       style="stroke:#000000;stroke-width:5.43139;stroke-miterlimit:4;stroke-dasharray:none;stroke-opacity:1">
      <path
         style="color:#000000;fill:#00ff00;stroke:#000000;stroke-width:5.43139;stroke-miterlimit:4;stroke-dasharray:none;stroke-opacity:1"
         d="M 351.94723,524.29999 153.53178,543.53692 37.66438,381.32256 120.21244,199.87127 318.62789,180.63434 434.49529,342.8487 Z"
         id="path59056-5" />
      <path
         style="color:#000000;fill:#000000;stroke:#000000;stroke-width:5.43139;stroke-miterlimit:4;stroke-dasharray:none;stroke-opacity:1"
         d="m 318.91602,180.00195 -199.10743,19.30469 -82.835934,182.08203 116.271484,162.7793 199.10742,-19.30274 0.14258,-0.3164 82.69141,-181.76758 z m -0.57618,1.26367 115.46485,161.6504 L 351.54492,523.73437 153.81836,542.9043 38.355469,381.25586 120.61523,200.43555 Z"
         id="path59058-8" />
    </g>
    <g
       aria-label=" P"
       id="text34423-8-6"
       style="font-size:16.9333px;stroke-width:0.264583"
       transform="matrix(0.59482043,0,0,0.61249482,67.858099,55.2634)">
      <path
         d="m 142.42532,108.3723 q 0,1.22784 -0.43408,2.28203 -0.42168,1.0418 -1.19063,1.81075 -0.95498,0.95498 -2.25722,1.43867 -1.30225,0.47129 -3.28663,0.47129 h -2.45566 v 6.8833 h -2.45566 v -18.46709 h 5.01054 q 1.66192,0 2.81533,0.28525 1.15342,0.27285 2.04639,0.86817 1.0542,0.70693 1.62471,1.76113 0.58291,1.0542 0.58291,2.6665 z m -2.55488,0.062 q 0,-0.95499 -0.33487,-1.66192 -0.33486,-0.70693 -1.01699,-1.15342 -0.59531,-0.38447 -1.36426,-0.5457 -0.75654,-0.17363 -1.92236,-0.17363 h -2.43086 v 7.37939 h 2.07119 q 1.48828,0 2.41846,-0.26045 0.93017,-0.27285 1.51308,-0.85576 0.58291,-0.59531 0.81856,-1.25264 0.24805,-0.65732 0.24805,-1.47587 z"
         id="path59060-1" />
    </g>
    <g
       id="path31934-9-6"
       inkscape:transform-center-x="-0.068767559"
       inkscape:transform-center-y="0.23021322"
       transform="matrix(-0.01180098,0.11290193,-0.10832214,-0.01018587,171.79423,134.93904)"
       style="stroke:#000000;stroke-width:5.43139;stroke-miterlimit:4;stroke-dasharray:none;stroke-opacity:1">
      <path
         style="color:#000000;fill:#00ff00;stroke:#000000;stroke-width:5.43139;stroke-miterlimit:4;stroke-dasharray:none;stroke-opacity:1"
         d="M 351.94723,524.29999 153.53178,543.53692 37.66438,381.32256 120.21244,199.87127 318.62789,180.63434 434.49529,342.8487 Z"
         id="path59067-7" />
      <path
         style="color:#000000;fill:#000000;stroke:#000000;stroke-width:5.43139;stroke-miterlimit:4;stroke-dasharray:none;stroke-opacity:1"
         d="m 318.91602,180.00195 -199.10743,19.30469 -82.835934,182.08203 116.271484,162.7793 199.10742,-19.30274 0.14258,-0.3164 82.69141,-181.76758 z m -0.57618,1.26367 115.46485,161.6504 L 351.54492,523.73437 153.81836,542.9043 38.355469,381.25586 120.61523,200.43555 Z"
         id="path59069-2" />
    </g>
    <g
       aria-label=" N"
       id="text34423-2"
       style="font-size:16.9333px;stroke-width:0.264583"
       transform="matrix(0.59482043,0,0,0.61249482,67.858099,55.2634)">
      <path
         d="m 80.184266,121.68494 h -3.038575 l -8.756054,-16.51992 v 16.51992 h -2.294434 v -18.46709 h 3.80752 l 7.987109,15.08125 v -15.08125 h 2.294434 z"
         id="path59071-8" />
    </g>
    <g
       aria-label=" K"
       id="text34423-9-9"
       style="font-size:16.9333px;stroke-width:0.264583"
       transform="matrix(0.59482043,0,0,0.61249482,67.858099,55.2634)">
      <path
         d="m 111.50446,176.81274 h -3.1874 l -7.30498,-8.22275 -1.835545,1.95957 v 6.26318 h -2.455664 v -18.46709 h 2.455664 v 9.63663 l 8.966895,-9.63663 h 2.97656 l -8.24756,8.68164 z"
         id="path59076-2" />
    </g>
    <path
       id="path1126-9"
       style="color:#000000;fill:none;stroke:#000000;stroke-width:1.20201;stroke-miterlimit:4;stroke-dasharray:none;stroke-opacity:1"
       d="m 383.22162,104.82285 -0.83991,-0.002 v 39.09895 c -0.13636,0.0133 -0.29061,0.0268 -0.51349,0.0382 -0.55115,0.0278 -1.32461,0.0454 -2.18116,0.0454 h -53.31739 c -0.85653,0 -1.63088,-0.0176 -2.18203,-0.0454 -0.22317,-0.0114 -0.37706,-0.0248 -0.51348,-0.0382 v -39.16527 l -0.8399,-0.002 v 39.47505 c 0,0.1184 0.0636,0.2154 0.11328,0.26508 0.0496,0.0496 0.09,0.07 0.12131,0.0858 0.0627,0.0312 0.10051,0.0405 0.1387,0.0502 0.0764,0.0189 0.1477,0.0289 0.23612,0.0394 0.17686,0.0213 0.41078,0.0376 0.69818,0.0522 0.57482,0.0291 1.35879,0.0471 2.22782,0.0471 h 53.31739 c 0.86901,0 1.65301,-0.0182 2.22782,-0.0471 0.2874,-0.0145 0.52045,-0.031 0.69731,-0.0522 0.0884,-0.0105 0.16066,-0.0205 0.237,-0.0394 0.038,-0.009 0.0761,-0.0189 0.13868,-0.0502 0.0312,-0.0156 0.0711,-0.0361 0.12066,-0.0858 0.0497,-0.0497 0.11309,-0.14668 0.11309,-0.26508 z" />
    <path
       id="rect3160-7"
       style="stroke:#000000;stroke-width:2.00461"
       d="m 354.93823,96.030083 v 11.311327 c 0,1.18478 -0.11386,2.13858 -0.25532,2.13858 h -3.28018 c -0.14143,0 -0.25531,-0.9538 -0.25531,-2.13858 V 96.030083 c 0,-1.18476 0.11388,-2.13858 0.25531,-2.13858 h 3.28018 c 0.14146,0 0.25532,0.95382 0.25532,2.13858 z m -1.79954,22.321477 -8.72936,-8.06458 17.28388,0.11912 z" />
    <path
       style="fill:none;stroke:#0000ee;stroke-width:0.400669;stroke-linecap:butt;stroke-linejoin:miter;stroke-miterlimit:4;stroke-dasharray:none;stroke-opacity:1"
       d="m 326.77756,120.10312 c 10.94874,0.0121 10.94874,0.0121 10.94874,0.0121"
       id="path1582-80" />
    <path
       style="fill:none;stroke:#0000ee;stroke-width:0.400669;stroke-linecap:butt;stroke-linejoin:miter;stroke-miterlimit:4;stroke-dasharray:none;stroke-opacity:1"
       d="m 340.70574,120.18161 c 5.33632,0.0123 5.33632,0.0123 5.33632,0.0123"
       id="path1582-6-5" />
    <path
       style="fill:none;stroke:#0000ee;stroke-width:0.400669;stroke-linecap:butt;stroke-linejoin:miter;stroke-miterlimit:4;stroke-dasharray:none;stroke-opacity:1"
       d="m 350.80739,120.2602 c 10.94875,0.0122 10.94875,0.0122 10.94875,0.0122"
       id="path1582-7-8" />
    <path
       style="fill:none;stroke:#0000ee;stroke-width:0.400669;stroke-linecap:butt;stroke-linejoin:miter;stroke-miterlimit:4;stroke-dasharray:none;stroke-opacity:1"
       d="m 364.73557,120.33868 c 5.33634,0.0123 5.33634,0.0123 5.33634,0.0123"
       id="path1582-6-2-0" />
    <path
       style="fill:none;stroke:#0000ee;stroke-width:0.400669;stroke-linecap:butt;stroke-linejoin:miter;stroke-miterlimit:4;stroke-dasharray:none;stroke-opacity:1"
       d="m 330.78571,123.40209 c 10.94877,0.0121 10.94877,0.0121 10.94877,0.0121"
       id="path1582-8-6" />
    <path
       style="fill:none;stroke:#0000ee;stroke-width:0.400669;stroke-linecap:butt;stroke-linejoin:miter;stroke-miterlimit:4;stroke-dasharray:none;stroke-opacity:1"
       d="m 344.71388,123.48058 c 5.33634,0.0122 5.33634,0.0122 5.33634,0.0122"
       id="path1582-6-3-6" />
    <path
       style="fill:none;stroke:#0000ee;stroke-width:0.400669;stroke-linecap:butt;stroke-linejoin:miter;stroke-miterlimit:4;stroke-dasharray:none;stroke-opacity:1"
       d="m 356.07171,123.40209 c 10.94875,0.0121 10.94875,0.0121 10.94875,0.0121"
       id="path1582-3-2" />
    <path
       style="fill:none;stroke:#0000ee;stroke-width:0.400669;stroke-linecap:butt;stroke-linejoin:miter;stroke-miterlimit:4;stroke-dasharray:none;stroke-opacity:1"
       d="m 369.99988,123.48058 c 5.33635,0.0122 5.33635,0.0122 5.33635,0.0122"
       id="path1582-6-29-5" />
    <path
       style="fill:none;stroke:#0000ee;stroke-width:0.400669;stroke-linecap:butt;stroke-linejoin:miter;stroke-miterlimit:4;stroke-dasharray:none;stroke-opacity:1"
       d="m 325.86659,127.01527 c 10.94874,0.0121 10.94874,0.0121 10.94874,0.0121"
       id="path1582-1-0" />
    <path
       style="fill:none;stroke:#0000ee;stroke-width:0.400669;stroke-linecap:butt;stroke-linejoin:miter;stroke-miterlimit:4;stroke-dasharray:none;stroke-opacity:1"
       d="m 339.79477,127.09374 c 5.33633,0.0123 5.33633,0.0123 5.33633,0.0123"
       id="path1582-6-1-6" />
    <path
       style="fill:none;stroke:#0000ee;stroke-width:0.400669;stroke-linecap:butt;stroke-linejoin:miter;stroke-miterlimit:4;stroke-dasharray:none;stroke-opacity:1"
       d="m 349.254,127.01527 c 10.94873,0.0121 10.94873,0.0121 10.94873,0.0121"
       id="path1582-0-6" />
    <path
       style="fill:none;stroke:#0000ee;stroke-width:0.400669;stroke-linecap:butt;stroke-linejoin:miter;stroke-miterlimit:4;stroke-dasharray:none;stroke-opacity:1"
       d="m 363.18215,127.09374 c 5.33634,0.0123 5.33634,0.0123 5.33634,0.0123"
       id="path1582-6-7-7" />
    <path
       style="fill:none;stroke:#0000ee;stroke-width:0.400669;stroke-linecap:butt;stroke-linejoin:miter;stroke-miterlimit:4;stroke-dasharray:none;stroke-opacity:1"
       d="m 373.47828,127.29015 c 5.33633,0.0123 5.33633,0.0123 5.33633,0.0123"
       id="path1582-6-7-1-2" />
    <path
       style="fill:none;stroke:#0000ee;stroke-width:0.400669;stroke-linecap:butt;stroke-linejoin:miter;stroke-miterlimit:4;stroke-dasharray:none;stroke-opacity:1"
       d="m 373.90979,120.14235 c 5.33634,0.0123 5.33634,0.0123 5.33634,0.0123"
       id="path1582-6-7-6-4" />
    <path
       style="fill:none;stroke:#0000ee;stroke-width:0.400669;stroke-linecap:butt;stroke-linejoin:miter;stroke-miterlimit:4;stroke-dasharray:none;stroke-opacity:1"
       d="m 326.80751,134.37908 c 10.94876,0.012 10.94876,0.012 10.94876,0.012"
       id="path1582-76-8" />
    <path
       style="fill:none;stroke:#0000ee;stroke-width:0.400669;stroke-linecap:butt;stroke-linejoin:miter;stroke-miterlimit:4;stroke-dasharray:none;stroke-opacity:1"
       d="m 328.0495,130.76584 c 5.33636,0.0123 5.33636,0.0123 5.33636,0.0123"
       id="path1582-6-8-3" />
    <path
       style="fill:none;stroke:#0000ee;stroke-width:0.400669;stroke-linecap:butt;stroke-linejoin:miter;stroke-miterlimit:4;stroke-dasharray:none;stroke-opacity:1"
       d="m 338.15121,130.84443 c 10.94874,0.0121 10.94874,0.0121 10.94874,0.0121"
       id="path1582-7-4-4" />
    <path
       style="fill:none;stroke:#0000ee;stroke-width:0.400669;stroke-linecap:butt;stroke-linejoin:miter;stroke-miterlimit:4;stroke-dasharray:none;stroke-opacity:1"
       d="m 352.07936,130.92292 c 5.33634,0.0122 5.33634,0.0122 5.33634,0.0122"
       id="path1582-6-2-1-0" />
    <path
       style="fill:none;stroke:#0000ee;stroke-width:0.400669;stroke-linecap:butt;stroke-linejoin:miter;stroke-miterlimit:4;stroke-dasharray:none;stroke-opacity:1"
       d="m 329.07158,140.79295 c 10.94876,0.0121 10.94876,0.0121 10.94876,0.0121"
       id="path1582-8-4-6" />
    <path
       style="fill:none;stroke:#0000ee;stroke-width:0.400669;stroke-linecap:butt;stroke-linejoin:miter;stroke-miterlimit:4;stroke-dasharray:none;stroke-opacity:1"
       d="m 342.99977,140.87142 c 5.33634,0.0122 5.33634,0.0122 5.33634,0.0122"
       id="path1582-6-3-9-9" />
    <path
       style="fill:none;stroke:#0000ee;stroke-width:0.400669;stroke-linecap:butt;stroke-linejoin:miter;stroke-miterlimit:4;stroke-dasharray:none;stroke-opacity:1"
       d="m 354.35761,140.79295 c 10.94874,0.0121 10.94874,0.0121 10.94874,0.0121"
       id="path1582-3-4-1" />
    <path
       style="fill:none;stroke:#0000ee;stroke-width:0.400669;stroke-linecap:butt;stroke-linejoin:miter;stroke-miterlimit:4;stroke-dasharray:none;stroke-opacity:1"
       d="m 368.28578,140.87142 c 5.33632,0.0122 5.33632,0.0122 5.33632,0.0122"
       id="path1582-6-29-1-4" />
    <path
       style="fill:none;stroke:#0000ee;stroke-width:0.400669;stroke-linecap:butt;stroke-linejoin:miter;stroke-miterlimit:4;stroke-dasharray:none;stroke-opacity:1"
       d="m 328.30552,138.51504 c 10.94878,0.0122 10.94878,0.0122 10.94878,0.0122"
       id="path1582-1-8-1" />
    <path
       style="fill:none;stroke:#0000ee;stroke-width:0.400669;stroke-linecap:butt;stroke-linejoin:miter;stroke-miterlimit:4;stroke-dasharray:none;stroke-opacity:1"
       d="m 342.23372,138.59354 c 5.33632,0.0123 5.33632,0.0123 5.33632,0.0123"
       id="path1582-6-1-5-6" />
    <path
       style="fill:none;stroke:#0000ee;stroke-width:0.400669;stroke-linecap:butt;stroke-linejoin:miter;stroke-miterlimit:4;stroke-dasharray:none;stroke-opacity:1"
       d="m 351.69293,138.51504 c 10.94876,0.0122 10.94876,0.0122 10.94876,0.0122"
       id="path1582-0-1-1" />
    <path
       style="fill:none;stroke:#0000ee;stroke-width:0.400669;stroke-linecap:butt;stroke-linejoin:miter;stroke-miterlimit:4;stroke-dasharray:none;stroke-opacity:1"
       d="m 365.62112,138.59354 c 5.33633,0.0123 5.33633,0.0123 5.33633,0.0123"
       id="path1582-6-7-5-1" />
    <path
       style="fill:none;stroke:#0000ee;stroke-width:0.400669;stroke-linecap:butt;stroke-linejoin:miter;stroke-miterlimit:4;stroke-dasharray:none;stroke-opacity:1"
       d="m 374.23107,138.36138 c 5.33634,0.0122 5.33634,0.0122 5.33634,0.0122"
       id="path1582-6-7-1-9-9" />
    <path
       style="fill:none;stroke:#0000ee;stroke-width:0.400669;stroke-linecap:butt;stroke-linejoin:miter;stroke-miterlimit:4;stroke-dasharray:none;stroke-opacity:1"
       d="m 361.25359,130.72658 c 5.33633,0.0123 5.33633,0.0123 5.33633,0.0123"
       id="path1582-6-7-6-1-5" />
    <path
       style="fill:none;stroke:#0000ee;stroke-width:0.378272;stroke-linecap:butt;stroke-linejoin:miter;stroke-miterlimit:4;stroke-dasharray:none;stroke-opacity:1"
       d="m 370.15464,130.51065 c 9.7398,0.0121 9.7398,0.0121 9.7398,0.0121"
       id="path1582-76-7-5" />
    <path
       style="fill:none;stroke:#0000ee;stroke-width:0.400669;stroke-linecap:butt;stroke-linejoin:miter;stroke-miterlimit:4;stroke-dasharray:none;stroke-opacity:1"
       d="m 341.80605,134.35943 c 5.33635,0.0123 5.33635,0.0123 5.33635,0.0123"
       id="path1582-6-3-9-3-1" />
    <path
       style="fill:none;stroke:#0000ee;stroke-width:0.514974;stroke-linecap:butt;stroke-linejoin:miter;stroke-miterlimit:4;stroke-dasharray:none;stroke-opacity:1"
       d="m 368.20901,134.20243 c 8.97084,0.0121 8.97084,0.0121 8.97084,0.0121"
       id="path1582-6-3-9-0-4" />
    <path
       style="fill:none;stroke:#0000ee;stroke-width:0.462037;stroke-linecap:butt;stroke-linejoin:miter;stroke-miterlimit:4;stroke-dasharray:none;stroke-opacity:1"
       d="m 353.2822,134.35949 c 7.15224,0.0121 7.15224,0.0121 7.15224,0.0121"
       id="path1582-6-3-9-2-7" />
    <rect
       style="fill:#0083e8;fill-opacity:0.447552;stroke:#000000;stroke-width:0.089244;stroke-miterlimit:4;stroke-dasharray:none;stroke-opacity:1"
       id="rect3618-8"
       width="58.229095"
       height="23.817692"
       x="324.15253"
       y="120.1031"
       rx="7.4163771"
       ry="0.41097465" />
    <text
       xml:space="preserve"
       style="font-size:38.5314px;line-height:1.25;font-family:sans-serif;stroke-width:0.150366"
       x="288.48511"
       y="197.02644"
       id="text265723-6"
       transform="scale(1.0855253,0.92121298)"><tspan
         sodipodi:role="line"
         id="tspan265721-5"
         style="font-size:38.5314px;stroke-width:0.150366"
         x="288.48511"
         y="197.02644">70</tspan></text>
    <text
       xml:space="preserve"
       style="font-size:25.6876px;line-height:1.25;font-family:sans-serif;stroke-width:0.150366"
       x="338.09015"
       y="192.01408"
       id="text277685-1"
       transform="scale(1.0855253,0.92121298)"><tspan
         sodipodi:role="line"
         id="tspan277683-7"
         style="font-size:25.6876px;stroke-width:0.150366"
         x="338.09015"
         y="192.01408">%</tspan></text>
    <ellipse
       style="fill:#00ffd4;fill-opacity:1;stroke:#000000;stroke-width:1.10946;stroke-opacity:1"
       id="path292801-7"
       cx="238.45938"
       cy="140.95047"
       rx="24.445272"
       ry="24.445271" />
    <text
       xml:space="preserve"
       style="font-size:42.3333px;line-height:1.25;font-family:sans-serif;stroke:#000000;stroke-width:0.265;stroke-miterlimit:4;stroke-dasharray:none;stroke-opacity:1"
       x="225.4556"
       y="154.77121"
       id="text293831-8"><tspan
         sodipodi:role="line"
         id="tspan293829-3"
         style="font-size:42.3333px;stroke:#000000;stroke-width:0.265;stroke-miterlimit:4;stroke-dasharray:none;stroke-opacity:1"
         x="225.4556"
         y="154.77121">3</tspan></text>
  </g>
</svg>
